{
    "editor": [
        {
            "icon": "",
            "key": "preGameScreen",
            "header": "PreGameScreen",
            "disabled": false,
            "fields": [
                {
                    "key": "titleText",
                    "header": "Title Text",
                    "type": "text"
                },
                {
                    "key": "titleTextSize",
                    "header": "Title text size",
                    "type": "range",
                    "options": {
                        "minValue": 20,
                        "maxValue": 40,
                        "stepSize": "1"
                    }
                },
                {
                    "key": "playButtonText",
                    "header": "Play Button Text",
                    "type": "text"
                },
                {
                    "key": "buttonTextColor",
                    "header": "Play Button Text Color",
                    "type": "color"
                },
                {
                    "key": "backgroundImage",
                    "header": "Background Image",
                    "type": "image"
                },
                {
                    "key": "titleImage",
                    "header": "Header Image",
                    "type": "image"
                },
                {
                    "key": "titleImageSize",
                    "header": "Header image size",
                    "type": "range",
                    "options": {
                        "minValue": 150,
                        "maxValue": 400,
                        "stepSize": "1"
                    }
                },
                {
                    "key": "cardColor",
                    "header": "Card Color",
                    "type": "color"
                },
                {
                    "key": "buttonColor",
                    "header": "Play Button Color",
                    "type": "color"
                },
                {
                    "key": "fontFamily",
                    "header": "Google Font Name",
                    "type": "text"
                },
                {
                    "key": "showLeaderboardButton",
                    "header": "Show leaderboard button",
                    "type": "boolean"
                },
                {
                    "key": "leaderboardButtonText",
                    "header": "Leaderboard button text",
                    "type": "text"
                },
                {
                    "key": "showSoundButton",
                    "header": "Show sound button",
                    "type": "boolean"
                },
                {
                    "key": "soundEnabledIcon",
                    "type": "image",
                    "header": "Sound enabled icon"
                },
                {
                    "key": "soundDisabledIcon",
                    "type": "image",
                    "header": "Sound disabled icon"
                }
            ]
        },
        {
            "icon": "",
            "key": "settings",
            "header": "Game Settings",
            "disabled": false,
            "fields": [
                {
                    "key": "instructions1",
                    "type": "text",
                    "header": "Instructions Text 1"
                },
                {
                    "key": "instructions2",
                    "type": "text",
                    "header": "Instructions Text 2"
                },
                {
                    "key": "instructions3",
                    "type": "text",
                    "header": "Instructions Text 3"
                },
                {
                    "key": "stadium",
                    "header": "Stadium image",
                    "type": "image"
                },
                {
                    "key": "teams",
                    "type": "array",
                    "header": "Teams array",
                    "fields": [
                        {
                            "key": "team",
                            "header": "Team",
                            "type": "array",
                            "fields": [
                                {
                                    "key": "logo",
                                    "header": "Team logo",
                                    "type": "image"
                                },
                                {
                                    "key": "name",
                                    "header": "Team name",
                                    "type": "text"
                                },
                                {
                                    "key": "players",
                                    "header": "Players",
                                    "type": "array",
                                    "fields": [
                                        {
                                            "key": "player",
                                            "header": "Player",
                                            "type": "array",
                                            "fields": [
                                                {
                                                    "key": "name",
                                                    "header": "Player name",
                                                    "type": "text"
                                                },
                                                {
                                                    "key": "head",
                                                    "header": "Head image",
                                                    "type": "image"
                                                },
                                                {
                                                    "key": "body",
                                                    "header": "Shirt color",
                                                    "type": "color"
                                                },
                                                {
                                                    "key": "cap",
                                                    "header": "Cap color",
                                                    "type": "color"
                                                },
                                                {
                                                    "key": "legs",
                                                    "header": "Legs color",
                                                    "type": "color"
                                                }
                                            ]
                                        }
                                    ]
                                }
                            ]
                        }
                    ]
                },
                {
                    "key": "timeGap",
                    "header": "Time between ball throw",
                    "type": "range",
                    "options": {
                        "minValue": 1,
                        "maxValue": 4,
                        "stepSize": 0.5
                    }
                },
                {
                    "key": "wickets",
                    "header": "Wickets color",
                    "type": "color"
                },
                {
                    "key": "textColor",
                    "header": "In Game Text Color",
                    "type": "color"
                },
                {
                    "key": "cricketBall",
                    "header": "Cricket ball",
                    "type": "image"
                },
                {
                    "key": "cricketBat",
                    "header": "Cricket bat",
                    "type": "image"
                },
                {
                    "key": "tap",
                    "header": "Tap sound effect",
                    "type": "sound"
                },
                {
                    "key": "theme",
                    "header": "Background Music",
                    "type": "sound"
                },
                {
                    "key": "lose",
                    "header": "Lose sound effect",
                    "type": "sound"
                },
                {
                    "key": "volume",
                    "header": "Background music volume",
                    "type": "range",
                    "options": {
                        "minValue": 0,
                        "maxValue": 1,
                        "stepSize": "0.1"
                    }
                }
            ]
        },
        {
            "icon": "",
            "key": "postGameScreen",
            "header": "Post Game Screen",
            "disabled": false,
            "fields": [
                {
                    "key": "scoreText",
                    "header": "Text before score",
                    "type": "text"
                },
                {
                    "key": "textColor",
                    "header": "Text Color",
                    "type": "color"
                },
                {
                    "key": "buttonTextColor",
                    "header": "Button text color",
                    "type": "color"
                },
                {
                    "key": "cardColor",
                    "header": "Card Background Color",
                    "type": "color"
                },
                {
                    "key": "playButtonText",
                    "header": "Play again button text",
                    "type": "text"
                },
                {
                    "key": "buttonColor",
                    "header": "Buttons color",
                    "type": "color"
                },
                {
                    "key": "buttonTextColor",
                    "header": "Buttons text color",
                    "type": "color"
                },
                {
                    "key": "showText",
                    "header": "Show custom text",
                    "type": "boolean"
                },
                {
                    "key": "customText",
                    "header": "Custom text",
                    "type": "text"
                },
                {
                    "key": "submitName",
                    "header": "Show name field",
                    "type": "boolean"
                },
                {
                    "key": "submitEmail",
                    "header": "Show email field",
                    "type": "boolean"
                },
                {
                    "key": "submitScoreText",
                    "header": "Submit score button text",
                    "type": "text"
                },
                {
                    "key": "showLeadeboardButtonPostGameScreen",
                    "header": "Show Leadeboard Button",
                    "type": "boolean"
                },
                {
                    "key": "leaderboardButtonText",
                    "type": "text",
                    "header": "Leadeboard button text"
                },
                {
                    "key": "showCTA",
                    "header": "Show CTA Button",
                    "type": "boolean"
                },
                {
                    "key": "ctaText",
                    "header": "CTA text",
                    "type": "text"
                },
                {
                    "key": "ctaButtonText",
                    "header": "CTA button text",
                    "type": "text"
                },
                {
                    "key": "ctaUrl",
                    "header": "CTA Link",
                    "type": "text"
                }
            ]
        }
    ],
    "config": {
        "preGameScreen": {
            "titleText": "Cricket",
            "titleTextSize": 30,
            "playButtonText": "Play",
            "cardColor": "#ffffff",
            "buttonColor": "#000000",
            "buttonTextColor": "#ffffff",
            "backgroundImage": "http://s3.ap-south-1.amazonaws.com/dist.playcent.com/cricket/assets/background.png",
            "titleImage": "http://s3.ap-south-1.amazonaws.com/dist.playcent.com/cricket/assets/placeholder_logo.jpg",
            "titleImageSize": 200,
            "fontFamily": "Overpass",
            "showLeaderboardButton": true,
            "leaderboardButtonText": "Leadeboard",
            "showSoundButton": true,
            "soundEnabledIcon": "http://s3.ap-south-1.amazonaws.com/dist.playcent.com/cricket/assets/sound_on.png",
            "soundDisabledIcon": "http://s3.ap-south-1.amazonaws.com/dist.playcent.com/cricket/assets/sound_off.png"
        },
        "settings": {
            "instructions1": "Tap / Spacebar to place blocks",
            "instructions2": "Place new blocks over the old ones",
            "instructions3": "Have fun!",
            "textColor": "#000",
            "stadium": "http://s3.ap-south-1.amazonaws.com/dist.playcent.com/cricket/assets/cricket_stadium.png",
            "teams": {
                "team1": {
                    "name": "Team One",
                    "logo": "http://s3.ap-south-1.amazonaws.com/dist.playcent.com/cricket/assets/apple.png",
                    "players": {
                        "player1": {
                            "name": "P1T1",
                            "head": "http://s3.ap-south-1.amazonaws.com/dist.playcent.com/cricket/assets/player_head.png",
                            "body": "#9DCEBA",
                            "cap": "#505750",
                            "legs": "#808080"
                        },
                        "player2": {
                            "name": "P2T1",
                            "head": "http://s3.ap-south-1.amazonaws.com/dist.playcent.com/cricket/assets/player_head.png",
                            "body": "#9DCEBA",
                            "cap": "#505750",
                            "legs": "#808080"
                        }
                    }
                },
                "team2": {
                    "name": "Team Two",
                    "logo": "http://s3.ap-south-1.amazonaws.com/dist.playcent.com/cricket/assets/banana.png",
                    "players": {
                        "player1": {
                            "name": "P1T2",
                            "head": "http://s3.ap-south-1.amazonaws.com/dist.playcent.com/cricket/assets/player_head.png",
                            "body": "#9DCEBA",
                            "cap": "#505750",
                            "legs": "#808080"
                        },
                        "player2": {
                            "name": "P2T2",
                            "head": "http://s3.ap-south-1.amazonaws.com/dist.playcent.com/cricket/assets/player_head.png",
                            "body": "#9DCEBA",
                            "cap": "#505750",
                            "legs": "#808080"
                        }
                    }
                },
                "team3": {
                    "name": "Team Three",
                    "logo": "http://s3.ap-south-1.amazonaws.com/dist.playcent.com/cricket/assets/pear.png",
                    "players": {
                        "player1": {
                            "name": "P1T3",
                            "head": "http://s3.ap-south-1.amazonaws.com/dist.playcent.com/cricket/assets/player_head.png",
                            "body": "#9DCEBA",
                            "cap": "#505750",
                            "legs": "#808080"
                        },
                        "player2": {
                            "name": "P2T3",
                            "head": "http://s3.ap-south-1.amazonaws.com/dist.playcent.com/cricket/assets/player_head.png",
                            "body": "#9DCEBA",
                            "cap": "#505750",
                            "legs": "#808080"
                        }
                    }
                }
            },
            "timeGap": 2,
            "wickets": "#e8dfc5",
            "cricketBall": "http://s3.ap-south-1.amazonaws.com/dist.playcent.com/cricket/assets/cricket_ball.png",
            "cricketBat": "http://s3.ap-south-1.amazonaws.com/dist.playcent.com/cricket/assets/cricket_bat.png",
            "theme": "http://s3.ap-south-1.amazonaws.com/dist.playcent.com/cricket/assets/theme.mp3",
            "volume": "0.7",
            "tap": "http://s3.ap-south-1.amazonaws.com/dist.playcent.com/cricket/assets/tap.wav",
            "lose": "http://s3.ap-south-1.amazonaws.com/dist.playcent.com/cricket/assets/lose.wav"
        },
        "postGameScreen": {
            "scoreText": "Your score is: ",
            "playButtonText": "Play Again",
            "buttonColor": "#000000",
            "cardColor": "#ffffff",
            "textColor": "#000000",
            "buttonTextColor": "#ffffff",
            "showLeadeboardButtonPostGameScreen": true,
            "submitScoreText": "Submit score",
            "leaderboardButtonText": "Leaderboard",
            "showText": true,
            "customText": "Hello world",
            "submitName": true,
            "submitEmail": true,
            "showCTA": true,
            "ctaText": "Check out our page for more",
            "ctaButtonText": "Go to Playcent",
            "ctaUrl": "http://playcent.com/browser/#/home"
        }
    }
}
